Lab3/jkff.vcd
$date
	Tue Sep 03 15:30:43 2019
$end
$version
	Icarus Verilog
$end
$timescale
	1s
$end
$scope module Testing $end
$var wire 1 ! q $end
$var reg 1 " clk $end
$var reg 1 # en $end
$var reg 1 $ j $end
$var reg 1 % k $end
$scope module jk $end
$var wire 1 " clock $end
$var wire 1 # en $end
$var wire 1 $ j $end
$var wire 1 % k $end
$var reg 1 ! q $end
$upscope $end
$upscope $end
$enddefinitions $end
#0
$dumpvars
0%
0$
0#
0"
x!
$end
#5
0!
1"
#10
0"
#12
1#
#15
1"
#20
0"
#24
1%
#25
1"
#30
0"
#35
1"
#36
0%
1$
#40
0"
#45
1!
1"
#48
1%
#50
0"
#55
0!
1"
#60
0"
0#
